…
  mutate(
    file = str_remove(file, ".csv"),
        ) |>
  separate(file, into = c("arm", "subject_id"), sep = "_") |>
  pivot_longer(
    cols = week_1:week_8,
    names_to = "week",
    names_prefix = "week_",
    values_to = "observations"
              ) |>
  select(subject_id, arm, week, observations)
tidy_df
```

    ## # A tibble: 160 × 4
    ##    subject_id arm   week  observations
    ##    <chr>      <chr> <chr>        <dbl>
    ##  1 01         con   1             0.2 
    ##  2 01         con   2            -1.31
    ##  3 01         con   3             0.66
    ##  4 01         con   4             1.96
    ##  5 01         con   5             0.23
    ##  6 01         con   6             1.09
    ##  7 01         con   7             0.05
    ##  8 01         con   8             1.94
    ##  9 02         con   1             1.13
    ## 10 02         con   2            -0.88
    ## # ℹ 150 more rows
…
``` r
output = vector("list", length = 5000)

for (i in 1:5000) {
  
  output[[i]] = sim_test(mu=0)
  
}

sim_results = bind_rows(output)

sim_results
```

    ## # A tibble: 5,000 × 2
    ##     mu_hat p_value
    ##      <dbl>   <dbl>
    ##  1 -1.44     0.115
    ##  2 -0.532    0.437
    ##  3 -0.959    0.198
    ##  4 -0.950    0.280
    ##  5  0.907    0.389
    ##  6  0.733    0.514
    ##  7 -1.00     0.299
    ##  8 -1.04     0.246
    ##  9 -0.0416   0.969
    ## 10  0.646    0.512
    ## # ℹ 4,990 more rows
#### Then I will repeat the above for μ={1,2,3,4,5,6}

``` r
output = vector("list", length = 5000)

for (i in 1:5000) {
  
  output[[i]] = sim_test(mu=0)
  
}

bind_rows(output)
```

    ## # A tibble: 5,000 × 2
    ##     mu_hat p_value
    ##      <dbl>   <dbl>
    ##  1  1.75    0.0429
    ##  2 -0.554   0.623 
    ##  3 -0.803   0.453 
    ##  4 -0.735   0.401 
    ##  5 -0.0492  0.955 
    ##  6  0.939   0.324 
    ##  7 -0.250   0.805 
    ##  8 -1.00    0.291 
    ##  9  1.28    0.249 
    ## 10  0.921   0.358 
    ## # ℹ 4,990 more rows
…
<img src="p8105_hw5_jw8483_files/figure-gfm/unnamed-chunk-13-1.png" width="90%" />

``` r
sim_result
```

    ## # A tibble: 30,000 × 3
    ##       mu   mu_hat p_value
    ##    <dbl>    <dbl>   <dbl>
    ##  1     1  0.121    0.907 
    ##  2     1  1.03     0.308 
    ##  3     1  0.975    0.423 
    ##  4     1 -0.00590  0.994 
    ##  5     1  0.955    0.205 
    ##  6     1  0.873    0.382 
    ##  7     1  1.74     0.0829
    ##  8     1  0.847    0.333 
    ##  9     1  0.724    0.437 
    ## 10     1 -0.817    0.319 
    ## # ℹ 29,990 more rows
…
<img src="p8105_hw5_jw8483_files/figure-gfm/unnamed-chunk-14-1.png" width="90%" />

``` r
sim_result
```

    ## # A tibble: 30,000 × 3
    ##       mu   mu_hat p_value
    ##    <dbl>    <dbl>   <dbl>
    ##  1     1  0.121    0.907 
    ##  2     1  1.03     0.308 
    ##  3     1  0.975    0.423 
    ##  4     1 -0.00590  0.994 
    ##  5     1  0.955    0.205 
    ##  6     1  0.873    0.382 
    ##  7     1  1.74     0.0829
    ##  8     1  0.847    0.333 
    ##  9     1  0.724    0.437 
    ## 10     1 -0.817    0.319 
    ## # ℹ 29,990 more rows
…
